%YAML 1.1
%TAG !u! tag:unity3d.com,2011:
--- !u!29 &1
OcclusionCullingSettings:
  m_ObjectHideFlags: 0
  serializedVersion: 2
  m_OcclusionBakeSettings:
    smallestOccluder: 5
    smallestHole: 0.25
    backfaceThreshold: 100
  m_SceneGUID: 00000000000000000000000000000000
  m_OcclusionCullingData: {fileID: 0}
--- !u!104 &2
RenderSettings:
  m_ObjectHideFlags: 0
  serializedVersion: 9
  m_Fog: 0
  m_FogColor: {r: 0.5, g: 0.5, b: 0.5, a: 1}
  m_FogMode: 3
  m_FogDensity: 0.01
  m_LinearFogStart: 0
  m_LinearFogEnd: 300
  m_AmbientSkyColor: {r: 0.212, g: 0.227, b: 0.259, a: 1}
  m_AmbientEquatorColor: {r: 0.114, g: 0.125, b: 0.133, a: 1}
  m_AmbientGroundColor: {r: 0.047, g: 0.043, b: 0.035, a: 1}
  m_AmbientIntensity: 1
  m_AmbientMode: 0
  m_SubtractiveShadowColor: {r: 0.42, g: 0.478, b: 0.627, a: 1}
  m_SkyboxMaterial: {fileID: 10304, guid: 0000000000000000f000000000000000, type: 0}
  m_HaloStrength: 0.5
  m_FlareStrength: 1
  m_FlareFadeSpeed: 3
  m_HaloTexture: {fileID: 0}
  m_SpotCookie: {fileID: 10001, guid: 0000000000000000e000000000000000, type: 0}
  m_DefaultReflectionMode: 0
  m_DefaultReflectionResolution: 128
  m_ReflectionBounces: 1
  m_ReflectionIntensity: 1
  m_CustomReflection: {fileID: 0}
  m_Sun: {fileID: 0}
  m_IndirectSpecularColor: {r: 0.44657898, g: 0.4964133, b: 0.5748178, a: 1}
  m_UseRadianceAmbientProbe: 0
--- !u!157 &3
LightmapSettings:
  m_ObjectHideFlags: 0
  serializedVersion: 11
  m_GIWorkflowMode: 0
  m_GISettings:
    serializedVersion: 2
    m_BounceScale: 1
    m_IndirectOutputScale: 1
    m_AlbedoBoost: 1
    m_EnvironmentLightingMode: 0
    m_EnableBakedLightmaps: 1
    m_EnableRealtimeLightmaps: 1
  m_LightmapEditorSettings:
    serializedVersion: 12
    m_Resolution: 2
    m_BakeResolution: 40
    m_AtlasSize: 1024
    m_AO: 0
    m_AOMaxDistance: 1
    m_CompAOExponent: 1
    m_CompAOExponentDirect: 0
    m_ExtractAmbientOcclusion: 0
    m_Padding: 2
    m_LightmapParameters: {fileID: 0}
    m_LightmapsBakeMode: 1
    m_TextureCompression: 1
    m_FinalGather: 0
    m_FinalGatherFiltering: 1
    m_FinalGatherRayCount: 256
    m_ReflectionCompression: 2
    m_MixedBakeMode: 2
    m_BakeBackend: 0
    m_PVRSampling: 1
    m_PVRDirectSampleCount: 32
    m_PVRSampleCount: 500
    m_PVRBounces: 2
    m_PVREnvironmentSampleCount: 500
    m_PVREnvironmentReferencePointCount: 2048
    m_PVRFilteringMode: 2
    m_PVRDenoiserTypeDirect: 0
    m_PVRDenoiserTypeIndirect: 0
    m_PVRDenoiserTypeAO: 0
    m_PVRFilterTypeDirect: 0
    m_PVRFilterTypeIndirect: 0
    m_PVRFilterTypeAO: 0
    m_PVREnvironmentMIS: 0
    m_PVRCulling: 1
    m_PVRFilteringGaussRadiusDirect: 1
    m_PVRFilteringGaussRadiusIndirect: 5
    m_PVRFilteringGaussRadiusAO: 2
    m_PVRFilteringAtrousPositionSigmaDirect: 0.5
    m_PVRFilteringAtrousPositionSigmaIndirect: 2
    m_PVRFilteringAtrousPositionSigmaAO: 1
    m_ExportTrainingData: 0
    m_TrainingDataDestination: TrainingData
    m_LightProbeSampleCountMultiplier: 4
  m_LightingDataAsset: {fileID: 0}
  m_UseShadowmask: 1
--- !u!196 &4
NavMeshSettings:
  serializedVersion: 2
  m_ObjectHideFlags: 0
  m_BuildSettings:
    serializedVersion: 2
    agentTypeID: 0
    agentRadius: 0.5
    agentHeight: 2
    agentSlope: 45
    agentClimb: 0.4
    ledgeDropHeight: 0
    maxJumpAcrossDistance: 0
    minRegionArea: 2
    manualCellSize: 0
    cellSize: 0.16666667
    manualTileSize: 0
    tileSize: 256
    accuratePlacement: 0
    debug:
      m_Flags: 0
  m_NavMeshData: {fileID: 0}
--- !u!1 &410294298
GameObject:
  m_ObjectHideFlags: 0
  m_CorrespondingSourceObject: {fileID: 0}
  m_PrefabInstance: {fileID: 0}
  m_PrefabAsset: {fileID: 0}
  serializedVersion: 6
  m_Component:
  - component: {fileID: 410294303}
  - component: {fileID: 410294302}
  - component: {fileID: 410294300}
  - component: {fileID: 410294299}
  m_Layer: 0
  m_Name: Main Camera
  m_TagString: MainCamera
  m_Icon: {fileID: 0}
  m_NavMeshLayer: 0
  m_StaticEditorFlags: 0
  m_IsActive: 1
--- !u!81 &410294299
AudioListener:
  m_ObjectHideFlags: 0
  m_CorrespondingSourceObject: {fileID: 0}
  m_PrefabInstance: {fileID: 0}
  m_PrefabAsset: {fileID: 0}
  m_GameObject: {fileID: 410294298}
  m_Enabled: 1
--- !u!124 &410294300
Behaviour:
  m_ObjectHideFlags: 0
  m_CorrespondingSourceObject: {fileID: 0}
  m_PrefabInstance: {fileID: 0}
  m_PrefabAsset: {fileID: 0}
  m_GameObject: {fileID: 410294298}
  m_Enabled: 1
--- !u!20 &410294302
Camera:
  m_ObjectHideFlags: 0
  m_CorrespondingSourceObject: {fileID: 0}
  m_PrefabInstance: {fileID: 0}
  m_PrefabAsset: {fileID: 0}
  m_GameObject: {fileID: 410294298}
  m_Enabled: 1
  serializedVersion: 2
  m_ClearFlags: 1
  m_BackGroundColor: {r: 0.19215687, g: 0.3019608, b: 0.4745098, a: 0}
  m_projectionMatrixMode: 1
  m_GateFitMode: 2
  m_FOVAxisMode: 0
  m_SensorSize: {x: 36, y: 24}
  m_LensShift: {x: 0, y: 0}
  m_FocalLength: 50
  m_NormalizedViewPortRect:
    serializedVersion: 2
    x: 0
    y: 0
    width: 1
    height: 1
  near clip plane: 0.3
  far clip plane: 1000
  field of view: 60
  orthographic: 0
  orthographic size: 5
  m_Depth: -1
  m_CullingMask:
    serializedVersion: 2
    m_Bits: 4294967295
  m_RenderingPath: -1
  m_TargetTexture: {fileID: 0}
  m_TargetDisplay: 0
  m_TargetEye: 3
  m_HDR: 1
  m_AllowMSAA: 1
  m_AllowDynamicResolution: 0
  m_ForceIntoRT: 0
  m_OcclusionCulling: 1
  m_StereoConvergence: 10
  m_StereoSeparation: 0.022
--- !u!4 &410294303
Transform:
  m_ObjectHideFlags: 0
  m_CorrespondingSourceObject: {fileID: 0}
  m_PrefabInstance: {fileID: 0}
  m_PrefabAsset: {fileID: 0}
  m_GameObject: {fileID: 410294298}
  m_LocalRotation: {x: -0.2931806, y: 0.7039412, z: -0.4179635, w: -0.4937798}
  m_LocalPosition: {x: 5.9776497, y: 8.159714, z: 2.5636592}
  m_LocalScale: {x: 1, y: 1, z: 1}
  m_Children: []
  m_Father: {fileID: 0}
  m_RootOrder: 0
  m_LocalEulerAnglesHint: {x: 0, y: 0, z: 0}
--- !u!1 &491904140
GameObject:
  m_ObjectHideFlags: 0
  m_CorrespondingSourceObject: {fileID: 0}
  m_PrefabInstance: {fileID: 0}
  m_PrefabAsset: {fileID: 0}
  serializedVersion: 6
  m_Component:
  - component: {fileID: 491904144}
  - component: {fileID: 491904143}
  - component: {fileID: 491904142}
  - component: {fileID: 491904141}
  m_Layer: 0
  m_Name: Cube
  m_TagString: Untagged
  m_Icon: {fileID: 0}
  m_NavMeshLayer: 0
  m_StaticEditorFlags: 0
  m_IsActive: 1
--- !u!65 &491904141
BoxCollider:
  m_ObjectHideFlags: 0
  m_CorrespondingSourceObject: {fileID: 0}
  m_PrefabInstance: {fileID: 0}
  m_PrefabAsset: {fileID: 0}
  m_GameObject: {fileID: 491904140}
  m_Material: {fileID: 0}
  m_IsTrigger: 0
  m_Enabled: 1
  serializedVersion: 2
  m_Size: {x: 1, y: 1, z: 1}
  m_Center: {x: 0, y: 0, z: 0}
--- !u!23 &491904142
MeshRenderer:
  m_ObjectHideFlags: 0
  m_CorrespondingSourceObject: {fileID: 0}
  m_PrefabInstance: {fileID: 0}
  m_PrefabAsset: {fileID: 0}
  m_GameObject: {fileID: 491904140}
  m_Enabled: 1
  m_CastShadows: 1
  m_ReceiveShadows: 1
  m_DynamicOccludee: 1
  m_MotionVectors: 1
  m_LightProbeUsage: 1
  m_ReflectionProbeUsage: 1
  m_RayTracingMode: 2
  m_RenderingLayerMask: 1
  m_RendererPriority: 0
  m_Materials:
  - {fileID: 10303, guid: 0000000000000000f000000000000000, type: 0}
  m_StaticBatchInfo:
    firstSubMesh: 0
    subMeshCount: 0
  m_StaticBatchRoot: {fileID: 0}
  m_ProbeAnchor: {fileID: 0}
  m_LightProbeVolumeOverride: {fileID: 0}
  m_ScaleInLightmap: 1
  m_ReceiveGI: 1
  m_PreserveUVs: 0
  m_IgnoreNormalsForChartDetection: 0
  m_ImportantGI: 0
  m_StitchLightmapSeams: 1
  m_SelectedEditorRenderState: 3
  m_MinimumChartSize: 4
  m_AutoUVMaxDistance: 0.5
  m_AutoUVMaxAngle: 89
  m_LightmapParameters: {fileID: 0}
  m_SortingLayerID: 0
  m_SortingLayer: 0
  m_SortingOrder: 0
--- !u!33 &491904143
MeshFilter:
  m_ObjectHideFlags: 0
  m_CorrespondingSourceObject: {fileID: 0}
  m_PrefabInstance: {fileID: 0}
  m_PrefabAsset: {fileID: 0}
  m_GameObject: {fileID: 491904140}
  m_Mesh: {fileID: 10202, guid: 0000000000000000e000000000000000, type: 0}
--- !u!4 &491904144
Transform:
  m_ObjectHideFlags: 0
  m_CorrespondingSourceObject: {fileID: 0}
  m_PrefabInstance: {fileID: 0}
  m_PrefabAsset: {fileID: 0}
  m_GameObject: {fileID: 491904140}
  m_LocalRotation: {x: 0, y: 0, z: 0, w: 1}
  m_LocalPosition: {x: 3.72, y: 0.62, z: 3.81}
  m_LocalScale: {x: 0.1833393, y: 0.1833393, z: 0.1833393}
  m_Children: []
  m_Father: {fileID: 0}
  m_RootOrder: 5
  m_LocalEulerAnglesHint: {x: 0, y: 0, z: 0}
--- !u!1001 &559410549
PrefabInstance:
  m_ObjectHideFlags: 0
  serializedVersion: 2
  m_Modification:
    m_TransformParent: {fileID: 0}
    m_Modifications:
    - target: {fileID: 100066, guid: 1b7945602ded3ec43804b120aa9ed037, type: 3}
      propertyPath: m_Name
      value: Man
      objectReference: {fileID: 0}
    - target: {fileID: 400004, guid: 1b7945602ded3ec43804b120aa9ed037, type: 3}
      propertyPath: m_LocalRotation.x
      value: -0.03760915
      objectReference: {fileID: 0}
    - target: {fileID: 400004, guid: 1b7945602ded3ec43804b120aa9ed037, type: 3}
      propertyPath: m_LocalRotation.y
      value: 0.48648524
      objectReference: {fileID: 0}
    - target: {fileID: 400004, guid: 1b7945602ded3ec43804b120aa9ed037, type: 3}
      propertyPath: m_LocalRotation.z
      value: -0.064426094
      objectReference: {fileID: 0}
    - target: {fileID: 400004, guid: 1b7945602ded3ec43804b120aa9ed037, type: 3}
      propertyPath: m_LocalRotation.w
      value: 0.8704981
      objectReference: {fileID: 0}
    - target: {fileID: 400004, guid: 1b7945602ded3ec43804b120aa9ed037, type: 3}
      propertyPath: m_LocalEulerAnglesHint.x
      value: -0.16000001
      objectReference: {fileID: 0}
    - target: {fileID: 400004, guid: 1b7945602ded3ec43804b120aa9ed037, type: 3}
      propertyPath: m_LocalEulerAnglesHint.y
      value: 58.41
      objectReference: {fileID: 0}
    - target: {fileID: 400004, guid: 1b7945602ded3ec43804b120aa9ed037, type: 3}
      propertyPath: m_LocalEulerAnglesHint.z
      value: -8.555
      objectReference: {fileID: 0}
    - target: {fileID: 400030, guid: 1b7945602ded3ec43804b120aa9ed037, type: 3}
      propertyPath: m_LocalRotation.x
      value: 0.042435583
      objectReference: {fileID: 0}
    - target: {fileID: 400030, guid: 1b7945602ded3ec43804b120aa9ed037, type: 3}
      propertyPath: m_LocalRotation.y
      value: -0.5517628
      objectReference: {fileID: 0}
    - target: {fileID: 400030, guid: 1b7945602ded3ec43804b120aa9ed037, type: 3}
      propertyPath: m_LocalRotation.z
      value: -0.061354626
      objectReference: {fileID: 0}
    - target: {fileID: 400030, guid: 1b7945602ded3ec43804b120aa9ed037, type: 3}
      propertyPath: m_LocalRotation.w
      value: 0.83065796
      objectReference: {fileID: 0}
    - target: {fileID: 400030, guid: 1b7945602ded3ec43804b120aa9ed037, type: 3}
      propertyPath: m_LocalEulerAnglesHint.x
      value: 0.16000001
      objectReference: {fileID: 0}
    - target: {fileID: 400030, guid: 1b7945602ded3ec43804b120aa9ed037, type: 3}
      propertyPath: m_LocalEulerAnglesHint.y
      value: -67.2
      objectReference: {fileID: 0}
    - target: {fileID: 400030, guid: 1b7945602ded3ec43804b120aa9ed037, type: 3}
      propertyPath: m_LocalEulerAnglesHint.z
      value: -8.555
      objectReference: {fileID: 0}
    - target: {fileID: 400066, guid: 1b7945602ded3ec43804b120aa9ed037, type: 3}
      propertyPath: m_LocalPosition.x
      value: -2.58
      objectReference: {fileID: 0}
    - target: {fileID: 400066, guid: 1b7945602ded3ec43804b120aa9ed037, type: 3}
      propertyPath: m_LocalPosition.y
      value: 0
      objectReference: {fileID: 0}
    - target: {fileID: 400066, guid: 1b7945602ded3ec43804b120aa9ed037, type: 3}
      propertyPath: m_LocalPosition.z
      value: 2.12
      objectReference: {fileID: 0}
    - target: {fileID: 400066, guid: 1b7945602ded3ec43804b120aa9ed037, type: 3}
      propertyPath: m_LocalRotation.x
      value: 0
      objectReference: {fileID: 0}
    - target: {fileID: 400066, guid: 1b7945602ded3ec43804b120aa9ed037, type: 3}
      propertyPath: m_LocalRotation.y
      value: 0
      objectReference: {fileID: 0}
    - target: {fileID: 400066, guid: 1b7945602ded3ec43804b120aa9ed037, type: 3}
      propertyPath: m_LocalRotation.z
      value: 0
      objectReference: {fileID: 0}
    - target: {fileID: 400066, guid: 1b7945602ded3ec43804b120aa9ed037, type: 3}
      propertyPath: m_LocalRotation.w
      value: 1
      objectReference: {fileID: 0}
    - target: {fileID: 400066, guid: 1b7945602ded3ec43804b120aa9ed037, type: 3}
      propertyPath: m_RootOrder
      value: 1
      objectReference: {fileID: 0}
    m_RemovedComponents:
    - {fileID: 11100000, guid: 1b7945602ded3ec43804b120aa9ed037, type: 3}
  m_SourcePrefab: {fileID: 100100000, guid: 1b7945602ded3ec43804b120aa9ed037, type: 3}
--- !u!1 &678528163
GameObject:
  m_ObjectHideFlags: 0
  m_CorrespondingSourceObject: {fileID: 0}
  m_PrefabInstance: {fileID: 0}
  m_PrefabAsset: {fileID: 0}
  serializedVersion: 6
  m_Component:
  - component: {fileID: 678528167}
  - component: {fileID: 678528166}
  - component: {fileID: 678528165}
  - component: {fileID: 678528164}
  m_Layer: 0
  m_Name: Plane
  m_TagString: Untagged
  m_Icon: {fileID: 0}
  m_NavMeshLayer: 0
  m_StaticEditorFlags: 0
  m_IsActive: 1
--- !u!23 &678528164
MeshRenderer:
  m_ObjectHideFlags: 0
  m_CorrespondingSourceObject: {fileID: 0}
  m_PrefabInstance: {fileID: 0}
  m_PrefabAsset: {fileID: 0}
  m_GameObject: {fileID: 678528163}
  m_Enabled: 1
  m_CastShadows: 1
  m_ReceiveShadows: 1
  m_DynamicOccludee: 1
  m_MotionVectors: 1
  m_LightProbeUsage: 1
  m_ReflectionProbeUsage: 1
  m_RayTracingMode: 2
  m_RenderingLayerMask: 1
  m_RendererPriority: 0
  m_Materials:
  - {fileID: 2100000, guid: 40a0ef94f1a774dc680fcd0f7809d305, type: 2}
  m_StaticBatchInfo:
    firstSubMesh: 0
    subMeshCount: 0
  m_StaticBatchRoot: {fileID: 0}
  m_ProbeAnchor: {fileID: 0}
  m_LightProbeVolumeOverride: {fileID: 0}
  m_ScaleInLightmap: 1
  m_ReceiveGI: 1
  m_PreserveUVs: 1
  m_IgnoreNormalsForChartDetection: 0
  m_ImportantGI: 0
  m_StitchLightmapSeams: 1
  m_SelectedEditorRenderState: 3
  m_MinimumChartSize: 4
  m_AutoUVMaxDistance: 0.5
  m_AutoUVMaxAngle: 89
  m_LightmapParameters: {fileID: 0}
  m_SortingLayerID: 0
  m_SortingLayer: 0
  m_SortingOrder: 0
--- !u!64 &678528165
MeshCollider:
  m_ObjectHideFlags: 0
  m_CorrespondingSourceObject: {fileID: 0}
  m_PrefabInstance: {fileID: 0}
  m_PrefabAsset: {fileID: 0}
  m_GameObject: {fileID: 678528163}
  m_Material: {fileID: 0}
  m_IsTrigger: 0
  m_Enabled: 1
  serializedVersion: 4
  m_Convex: 0
  m_CookingOptions: 30
  m_Mesh: {fileID: 10209, guid: 0000000000000000e000000000000000, type: 0}
--- !u!33 &678528166
MeshFilter:
  m_ObjectHideFlags: 0
  m_CorrespondingSourceObject: {fileID: 0}
  m_PrefabInstance: {fileID: 0}
  m_PrefabAsset: {fileID: 0}
  m_GameObject: {fileID: 678528163}
  m_Mesh: {fileID: 10209, guid: 0000000000000000e000000000000000, type: 0}
--- !u!4 &678528167
Transform:
  m_ObjectHideFlags: 0
  m_CorrespondingSourceObject: {fileID: 0}
  m_PrefabInstance: {fileID: 0}
  m_PrefabAsset: {fileID: 0}
  m_GameObject: {fileID: 678528163}
  m_LocalRotation: {x: 0, y: 0, z: 0, w: 1}
  m_LocalPosition: {x: 0, y: 0, z: 0}
  m_LocalScale: {x: 1, y: 1, z: 1}
  m_Children: []
  m_Father: {fileID: 0}
  m_RootOrder: 3
  m_LocalEulerAnglesHint: {x: 0, y: 0, z: 0}
--- !u!1001 &1036716808
PrefabInstance:
  m_ObjectHideFlags: 0
  serializedVersion: 2
  m_Modification:
    m_TransformParent: {fileID: 0}
    m_Modifications:
    - target: {fileID: 100066, guid: 1b7945602ded3ec43804b120aa9ed037, type: 3}
      propertyPath: m_Name
      value: w
      objectReference: {fileID: 0}
    - target: {fileID: 400004, guid: 1b7945602ded3ec43804b120aa9ed037, type: 3}
      propertyPath: m_LocalRotation.x
      value: -0.03760915
      objectReference: {fileID: 0}
    - target: {fileID: 400004, guid: 1b7945602ded3ec43804b120aa9ed037, type: 3}
      propertyPath: m_LocalRotation.y
      value: 0.48648524
      objectReference: {fileID: 0}
    - target: {fileID: 400004, guid: 1b7945602ded3ec43804b120aa9ed037, type: 3}
      propertyPath: m_LocalRotation.z
      value: -0.064426094
      objectReference: {fileID: 0}
    - target: {fileID: 400004, guid: 1b7945602ded3ec43804b120aa9ed037, type: 3}
      propertyPath: m_LocalRotation.w
      value: 0.8704981
      objectReference: {fileID: 0}
    - target: {fileID: 400004, guid: 1b7945602ded3ec43804b120aa9ed037, type: 3}
      propertyPath: m_LocalEulerAnglesHint.x
      value: -0.16000001
      objectReference: {fileID: 0}
    - target: {fileID: 400004, guid: 1b7945602ded3ec43804b120aa9ed037, type: 3}
      propertyPath: m_LocalEulerAnglesHint.y
      value: 58.41
      objectReference: {fileID: 0}
    - target: {fileID: 400004, guid: 1b7945602ded3ec43804b120aa9ed037, type: 3}
      propertyPath: m_LocalEulerAnglesHint.z
      value: -8.555
      objectReference: {fileID: 0}
    - target: {fileID: 400030, guid: 1b7945602ded3ec43804b120aa9ed037, type: 3}
      propertyPath: m_LocalRotation.x
      value: 0.042435583
      objectReference: {fileID: 0}
    - target: {fileID: 400030, guid: 1b7945602ded3ec43804b120aa9ed037, type: 3}
      propertyPath: m_LocalRotation.y
      value: -0.5517628
      objectReference: {fileID: 0}
    - target: {fileID: 400030, guid: 1b7945602ded3ec43804b120aa9ed037, type: 3}
      propertyPath: m_LocalRotation.z
      value: -0.061354626
      objectReference: {fileID: 0}
    - target: {fileID: 400030, guid: 1b7945602ded3ec43804b120aa9ed037, type: 3}
      propertyPath: m_LocalRotation.w
      value: 0.83065796
      objectReference: {fileID: 0}
    - target: {fileID: 400030, guid: 1b7945602ded3ec43804b120aa9ed037, type: 3}
      propertyPath: m_LocalEulerAnglesHint.x
      value: 0.16000001
      objectReference: {fileID: 0}
    - target: {fileID: 400030, guid: 1b7945602ded3ec43804b120aa9ed037, type: 3}
      propertyPath: m_LocalEulerAnglesHint.y
      value: -67.2
      objectReference: {fileID: 0}
    - target: {fileID: 400030, guid: 1b7945602ded3ec43804b120aa9ed037, type: 3}
      propertyPath: m_LocalEulerAnglesHint.z
      value: -8.555
      objectReference: {fileID: 0}
    - target: {fileID: 400066, guid: 1b7945602ded3ec43804b120aa9ed037, type: 3}
      propertyPath: m_LocalPosition.x
      value: -1.32
      objectReference: {fileID: 0}
    - target: {fileID: 400066, guid: 1b7945602ded3ec43804b120aa9ed037, type: 3}
      propertyPath: m_LocalPosition.y
      value: 0
      objectReference: {fileID: 0}
    - target: {fileID: 400066, guid: 1b7945602ded3ec43804b120aa9ed037, type: 3}
      propertyPath: m_LocalPosition.z
      value: -3.58
      objectReference: {fileID: 0}
    - target: {fileID: 400066, guid: 1b7945602ded3ec43804b120aa9ed037, type: 3}
      propertyPath: m_LocalRotation.x
      value: 0
      objectReference: {fileID: 0}
    - target: {fileID: 400066, guid: 1b7945602ded3ec43804b120aa9ed037, type: 3}
      propertyPath: m_LocalRotation.y
      value: 0
      objectReference: {fileID: 0}
    - target: {fileID: 400066, guid: 1b7945602ded3ec43804b120aa9ed037, type: 3}
      propertyPath: m_LocalRotation.z
      value: 0
      objectReference: {fileID: 0}
    - target: {fileID: 400066, guid: 1b7945602ded3ec43804b120aa9ed037, type: 3}
      propertyPath: m_LocalRotation.w
      value: 1
      objectReference: {fileID: 0}
    - target: {fileID: 400066, guid: 1b7945602ded3ec43804b120aa9ed037, type: 3}
      propertyPath: m_RootOrder
      value: 4
      objectReference: {fileID: 0}
    m_RemovedComponents:
    - {fileID: 11100000, guid: 1b7945602ded3ec43804b120aa9ed037, type: 3}
  m_SourcePrefab: {fileID: 100100000, guid: 1b7945602ded3ec43804b120aa9ed037, type: 3}
--- !u!1 &1820290710
GameObject:
  m_ObjectHideFlags: 0
  m_CorrespondingSourceObject: {fileID: 0}
  m_PrefabInstance: {fileID: 0}
  m_PrefabAsset: {fileID: 0}
  serializedVersion: 6
  m_Component:
  - component: {fileID: 1820290712}
  - component: {fileID: 1820290711}
  m_Layer: 0
  m_Name: Directional Light
  m_TagString: Untagged
  m_Icon: {fileID: 0}
  m_NavMeshLayer: 0
  m_StaticEditorFlags: 0
  m_IsActive: 1
--- !u!108 &1820290711
Light:
  m_ObjectHideFlags: 0
  m_CorrespondingSourceObject: {fileID: 0}
  m_PrefabInstance: {fileID: 0}
  m_PrefabAsset: {fileID: 0}
  m_GameObject: {fileID: 1820290710}
  m_Enabled: 1
  serializedVersion: 10
  m_Type: 1
  m_Shape: 0
  m_Color: {r: 1, g: 0.95686275, b: 0.8392157, a: 1}
  m_Intensity: 1
  m_Range: 10
  m_SpotAngle: 30
  m_InnerSpotAngle: 21.80208
  m_CookieSize: 10
  m_Shadows:
    m_Type: 2
    m_Resolution: -1
    m_CustomResolution: -1
    m_Strength: 1
    m_Bias: 0.05
    m_NormalBias: 0.4
    m_NearPlane: 0.2
    m_CullingMatrixOverride:
      e00: 1
      e01: 0
      e02: 0
      e03: 0
      e10: 0
      e11: 1
      e12: 0
      e13: 0
      e20: 0
      e21: 0
      e22: 1
      e23: 0
      e30: 0
      e31: 0
      e32: 0
      e33: 1
    m_UseCullingMatrixOverride: 0
  m_Cookie: {fileID: 0}
  m_DrawHalo: 0
  m_Flare: {fileID: 0}
  m_RenderMode: 0
  m_CullingMask:
    serializedVersion: 2
    m_Bits: 4294967295
  m_RenderingLayerMask: 1
  m_Lightmapping: 4
  m_LightShadowCasterMode: 0
  m_AreaSize: {x: 1, y: 1}
  m_BounceIntensity: 1
  m_ColorTemperature: 6570
  m_UseColorTemperature: 0
  m_BoundingSphereOverride: {x: 0, y: 0, z: 0, w: 0}
  m_UseBoundingSphereOverride: 0
  m_ShadowRadius: 0
  m_ShadowAngle: 0
--- !u!4 &1820290712
Transform:
  m_ObjectHideFlags: 0
  m_CorrespondingSourceObject: {fileID: 0}
  m_PrefabInstance: {fileID: 0}
  m_PrefabAsset: {fileID: 0}
  m_GameObject: {fileID: 1820290710}
  m_LocalRotation: {x: 0.40821788, y: -0.23456968, z: 0.10938163, w: 0.8754261}
  m_LocalPosition: {x: -1.879, y: 6.154, z: 3.255}
  m_LocalScale: {x: 1, y: 1, z: 1}
  m_Children: []
  m_Father: {fileID: 0}
  m_RootOrder: 2
  m_LocalEulerAnglesHint: {x: 50, y: -30, z: 0}
--- !u!1 &1838446420 stripped
GameObject:
  m_CorrespondingSourceObject: {fileID: 100066, guid: 1b7945602ded3ec43804b120aa9ed037,
    type: 3}
  m_PrefabInstance: {fileID: 1036716808}
  m_PrefabAsset: {fileID: 0}
--- !u!114 &1838446421
MonoBehaviour:
  m_ObjectHideFlags: 0
  m_CorrespondingSourceObject: {fileID: 0}
  m_PrefabInstance: {fileID: 0}
  m_PrefabAsset: {fileID: 0}
  m_GameObject: {fileID: 1838446420}
  m_Enabled: 1
  m_EditorHideFlags: 0
  m_Script: {fileID: 11500000, guid: 6d51a0645637a1b4fa691cbf90fbc015, type: 3}
  m_Name: 
  m_EditorClassIdentifier: 
  speed: 3
  goal: {fileID: 491904144}
  accuracy: 0.3
--- !u!1 &1918021767 stripped
GameObject:
  m_CorrespondingSourceObject: {fileID: 100066, guid: 1b7945602ded3ec43804b120aa9ed037,
    type: 3}
  m_PrefabInstance: {fileID: 559410549}
  m_PrefabAsset: {fileID: 0}
--- !u!114 &1918021769
MonoBehaviour:
  m_ObjectHideFlags: 0
  m_CorrespondingSourceObject: {fileID: 0}
  m_PrefabInstance: {fileID: 0}
  m_PrefabAsset: {fileID: 0}
  m_GameObject: {fileID: 1918021767}
  m_Enabled: 1
  m_EditorHideFlags: 0
  m_Script: {fileID: 11500000, guid: 6d51a0645637a1b4fa691cbf90fbc015, type: 3}
  m_Name: 
  m_EditorClassIdentifier: 
  speed: 15
  goal: {fileID: 491904144}
  accuracy: 0.1
